%YAML 1.1
%TAG !u! tag:unity3d.com,2011:
--- !u!21 &2100000
Material:
  serializedVersion: 6
  m_ObjectHideFlags: 0
  m_PrefabParentObject: {fileID: 0}
  m_PrefabInternal: {fileID: 0}
  m_Name: lambert1
  m_Shader: {fileID: 4800000, guid: d445e1c9da7312e4b84cb1a963e6f398, type: 3}
  m_ShaderKeywords: 
  m_LightmapFlags: 5
  m_CustomRenderQueue: -1
  stringTagMap: {}
  m_SavedProperties:
    serializedVersion: 2
    m_TexEnvs:
      data:
        first:
          name: _MainTex
        second:
          m_Texture: {fileID: 2800000, guid: cd774855c2e904045bd8d08d66bd5592, type: 3}
          m_Scale: {x: 1, y: 1}
          m_Offset: {x: 0, y: 0}
      data:
        first:
          name: _BumpMap
        second:
          m_Texture: {fileID: 2800000, guid: 852a7c88e7a88c442bbadf8627de2834, type: 3}
          m_Scale: {x: 1, y: 1}
          m_Offset: {x: 0, y: 0}
      data:
        first:
          name: _Diffuse
        second:
          m_Texture: {fileID: 2800000, guid: 4c6e7633a57e8584d9e9c49f4a8fad94, type: 3}
          m_Scale: {x: 1, y: 1}
          m_Offset: {x: 0, y: 0}
      data:
        first:
          name: _SpecularMapAlphaGloss
        second:
          m_Texture: {fileID: 2800000, guid: 4e1d910dfb4f93b49beb5cab7452943b, type: 3}
          m_Scale: {x: 1, y: 1}
          m_Offset: {x: 0, y: 0}
      data:
        first:
          name: _CubeMap
        second:
          m_Texture: {fileID: 0}
          m_Scale: {x: 1, y: 1}
          m_Offset: {x: 0, y: 0}
    m_Floats:
      data:
        first:
          name: _Shininess
        second: 0.70927906
      data:
        first:
          name: _GlossRange
        second: 0.75
      data:
        first:
          name: _CubeMapRange
        second: 0
    m_Colors:
      data:
        first:
          name: _Color
        second: {r: 1, g: 1, b: 1, a: 1}
      data:
        first:
          name: _SpecColor
        second: {r: 0.61764705, g: 0.61764705, b: 0.61764705, a: 1}
      data:
        first:
          name: _MainColor
        second: {r: 1, g: 1, b: 1, a: 1}
      data:
        first:
          name: _CubeMapColor
        second: {r: 1, g: 1, b: 1, a: 1}
