%YAML 1.1
%TAG !u! tag:unity3d.com,2011:
--- !u!21 &2100000
Material:
  serializedVersion: 6
  m_ObjectHideFlags: 0
  m_PrefabParentObject: {fileID: 0}
  m_PrefabInternal: {fileID: 0}
  m_Name: mactex
  m_Shader: {fileID: 10705, guid: 0000000000000000f000000000000000, type: 0}
  m_ShaderKeywords: 
  m_LightmapFlags: 5
  m_CustomRenderQueue: -1
  stringTagMap: {}
  m_SavedProperties:
    serializedVersion: 2
    m_TexEnvs:
      data:
        first:
          name: _MainTex
        second:
          m_Texture: {fileID: 2800000, guid: 88deb49f8f3b2eb4ab23efa922355371, type: 3}
          m_Scale: {x: 1, y: 1}
          m_Offset: {x: 0, y: 0}
      data:
        first:
          name: _BumpMap
        second:
          m_Texture: {fileID: 2800000, guid: ebeb25ad49330aa478949761ce7e506f, type: 3}
          m_Scale: {x: 1, y: 1}
          m_Offset: {x: 0, y: 0}
      data:
        first:
          name: _Cube
        second:
          m_Texture: {fileID: 8900000, guid: 0cfd9a0cc048f8e428c7a6673a376111, type: 2}
          m_Scale: {x: 1, y: 1}
          m_Offset: {x: 0, y: 0}
    m_Floats:
      data:
        first:
          name: _Shininess
        second: 0.054698285
    m_Colors:
      data:
        first:
          name: _Color
        second: {r: 0.588, g: 0.588, b: 0.588, a: 1}
      data:
        first:
          name: _SpecColor
        second: {r: 0, g: 0, b: 0, a: 1}
      data:
        first:
          name: _ReflectColor
        second: {r: 0.47014928, g: 0.47014928, b: 0.47014928, a: 0.4627451}
